<svg xmlns="http://www.w3.org/2000/svg" width="120" height="120" viewBox="0 0 120 120">
    <g fill="#00C689" fill-rule="evenodd">
        <path d="M60 120C26.916 120 0 93.084 0 60S26.916 0 60 0c10.527 0 20.883 2.765 29.948 7.997a2.575 2.575 0 0 1 .942 3.514 2.595 2.595 0 0 1-2.24 1.284c-.446 0-.887-.118-1.274-.342C79.094 7.672 69.627 5.144 60 5.144 29.752 5.144 5.144 29.753 5.144 60c0 30.248 24.608 54.856 54.856 54.856S114.856 90.248 114.856 60c0-2.453-.164-4.92-.486-7.33a54.366 54.366 0 0 0-6.824-20.046 2.556 2.556 0 0 1-.257-1.951 2.559 2.559 0 0 1 1.2-1.563 2.565 2.565 0 0 1 1.28-.345c.919 0 1.775.493 2.234 1.287a59.877 59.877 0 0 1 3.999 8.371 59.51 59.51 0 0 1 3.467 13.566c.353 2.634.531 5.328.531 8.011 0 33.084-26.916 60-60 60"/>
        <path d="M52.343 81.715a2.557 2.557 0 0 1-1.819-.754L35.21 65.647a2.577 2.577 0 0 1 0-3.637 2.556 2.556 0 0 1 1.819-.753c.687 0 1.332.267 1.818.753l12.608 12.607a1.254 1.254 0 0 0 1.777 0l27.92-27.921a2.555 2.555 0 0 1 1.82-.753c.686 0 1.332.267 1.817.753a2.577 2.577 0 0 1 0 3.637L54.162 80.961a2.557 2.557 0 0 1-1.819.754"/>
    </g>
</svg>
